{
  "type": "mdx",
  "permalink": "/tp4Devops/markdown-page",
  "source": "@site/src/pages/markdown-page.md",
  "title": "Markdown page example",
  "description": "You don't need React to write simple standalone pages.",
  "frontMatter": {
    "title": "Markdown page example"
  },
  "unlisted": false
}