{
  "title": "Recent posts",
  "items": [
    {
      "title": "Welcome",
      "permalink": "/tp4Devops/blog/welcome",
      "unlisted": false
    },
    {
      "title": "MDX Blog Post",
      "permalink": "/tp4Devops/blog/mdx-blog-post",
      "unlisted": false
    },
    {
      "title": "Long Blog Post",
      "permalink": "/tp4Devops/blog/long-blog-post",
      "unlisted": false
    },
    {
      "title": "First Blog Post",
      "permalink": "/tp4Devops/blog/first-blog-post",
      "unlisted": false
    }
  ]
}